<svg xmlns="http://www.w3.org/2000/svg" width="22" height="23" viewBox="0 0 22 23">
    <g fill="none" fill-rule="evenodd">
        <path stroke="#FFF" stroke-width="1.2" d="M17.678 18.144h-7.67l-4.264 3.51a.107.107 0 0 1-.172-.084l-.045-3.43-2.01.004A2.917 2.917 0 0 1 .6 15.227V3.517A2.917 2.917 0 0 1 3.517.6h14.16a2.917 2.917 0 0 1 2.918 2.916v11.711a2.917 2.917 0 0 1-2.917 2.917z"/>
        <path fill="#FFF" d="M4.773 6.4h3.996v.81H5.633v2.286h2.833v.809H5.633v2.367H8.87v.81H4.773zM15.823 13.482l-4.421-5.564v5.564h-.81V6.4h.689l4.42 5.585V6.4h.81v7.082z"/>
    </g>
</svg>
