<svg xmlns="http://www.w3.org/2000/svg" width="610" height="628" viewBox="0 0 610 628">
    <path fill="#023E77" fill-rule="evenodd" d="M304.93 0L0 628l408.053-292.564-13.055-18.225-336.24 241.085L305.874 49.357 609.05 617.05V163.743l-129.085 92.564 13.051 18.2 93.627-67.125v320.132z" opacity=".03"/>
</svg>
