<svg xmlns="http://www.w3.org/2000/svg" xmlns:xlink="http://www.w3.org/1999/xlink" width="444" height="426" viewBox="0 0 444 426">
    <defs>
        <path id="a" d="M212.577 15.407C95.605 15.407.78 110.232.78 227.204c0 49.758 17.585 96.113 46.309 132.262.694.85 1.088 1.278 1.181 1.285 81.048 5.712 202.367 13.861 363.957 24.448 8.387-7.15 38.473-40.789 45.695-48.647L442.156 87.998c-19.061-28.004-42.182-67.805-68.868-87.5l-158.18 14.466c-.951.289-1.8.443-2.531.443z"/>
    </defs>
    <g fill="none" fill-rule="evenodd">
        <path fill="#EFF2F2" d="M.78 214.167C.78 97.195 95.604 2.37 212.576 2.37s211.797 94.824 211.797 211.796-94.825 211.796-211.797 211.796S.78 331.139.78 214.167"/>
        <g transform="translate(0 -13.037)">
            <mask id="b" fill="#fff">
                <use xlink:href="#a"/>
            </mask>
            <path fill="#FFF" d="M-4 164.095h182.884a34.069 34.069 0 0 0 21.593-7.716l20.602-16.877a34.04 34.04 0 0 0 8.383-10.158c12.207-22.602 55.422-102.62 57.865-107.175 2.847-5.307 11.844-10.858 25.294-4.052 10.982 5.557 22.679 32.516 9.72 56.673-6.814 12.7-15.803 30.898-24.232 47.966-5.468 11.071 2.589 24.03 14.936 24.03h87.462c14.58 0 26.509 11.93 26.509 26.51 0 14.58-11.929 26.51-26.509 26.51h-32.588 47.728c14.58 0 26.509 11.928 26.509 26.508 0 14.58-11.929 26.51-26.509 26.51h-47.728 32.588c14.58 0 26.509 11.93 26.509 26.51 0 14.58-11.929 26.51-26.509 26.51h-34.385 8.654c14.58 0 26.51 11.928 26.51 26.508 0 14.581-11.93 26.51-26.51 26.51h-8.654 2.998H5.763" mask="url(#b)"/>
            <path stroke="#3C454F" stroke-width="3" d="M-4 164.095h182.884a34.069 34.069 0 0 0 21.593-7.716l20.602-16.877a34.04 34.04 0 0 0 8.383-10.158c12.207-22.602 55.422-102.62 57.865-107.175 2.847-5.307 11.844-10.858 25.294-4.052 10.982 5.557 22.679 32.516 9.72 56.673-6.814 12.7-15.803 30.898-24.232 47.966-5.468 11.071 2.589 24.03 14.936 24.03h87.462c14.58 0 26.509 11.93 26.509 26.51 0 14.58-11.929 26.51-26.509 26.51h-32.588 47.728c14.58 0 26.509 11.928 26.509 26.508 0 14.58-11.929 26.51-26.509 26.51h-47.728 32.588c14.58 0 26.509 11.93 26.509 26.51 0 14.58-11.929 26.51-26.509 26.51h-34.385 8.654c14.58 0 26.51 11.928 26.51 26.508 0 14.581-11.93 26.51-26.51 26.51h-8.654 2.998H5.763" mask="url(#b)"/>
        </g>
        <path stroke="#3C454F" stroke-width="3" d="M269.474 40.907l6.994 3.759c4.874 2.62 11.536-.3 14.877-6.522l5.532-10.3c3.34-6.22 2.097-13.383-2.775-16.002l-6.999-3.762"/>
        <path fill="#FF4946" d="M172.108 142.75H107.89c-5.16 0-9.494 3.89-10.048 9.021L94.1 186.425v17.965h91.798v-17.965l-3.742-34.654a10.106 10.106 0 0 0-10.048-9.021M107.89 354.935h64.218c5.161 0 9.494-3.89 10.048-9.021l3.742-34.654v-12.796H94.1v12.796l3.742 34.654a10.106 10.106 0 0 0 10.048 9.02"/>
        <path fill="#FFF" d="M75.976 228.11c11.589-35.65 49.884-55.156 85.535-43.568 35.651 11.589 55.157 49.884 43.569 85.535-11.589 35.65-49.884 55.157-85.535 43.569-35.651-11.59-55.158-49.884-43.569-85.535"/>
        <path stroke="#3C454F" stroke-width="3" d="M75.976 228.11c11.589-35.65 49.884-55.156 85.535-43.568 35.651 11.589 55.157 49.884 43.569 85.535-11.589 35.65-49.884 55.157-85.535 43.569-35.651-11.59-55.158-49.884-43.569-85.535z"/>
        <path fill="#FFF" d="M83.123 249.64c0-31.411 25.465-56.876 56.877-56.876 31.411 0 56.875 25.465 56.875 56.877 0 31.412-25.464 56.877-56.875 56.877-31.412 0-56.877-25.465-56.877-56.877"/>
        <path stroke="#3C454F" stroke-width="3" d="M83.123 249.64c0-31.411 25.465-56.876 56.877-56.876 31.411 0 56.875 25.465 56.875 56.877 0 31.412-25.464 56.877-56.875 56.877-31.412 0-56.877-25.465-56.877-56.877z"/>
        <path fill="#3E73EE" d="M144.641 261.771l-6.538-.013.095-46.717 3.27.007 3.268.007z"/>
        <path fill="#FF4946" d="M125.103 247.259l1.412-3.854 56.321 20.63-1.412 3.854z"/>
        <path fill="#FFF" d="M135.287 251.028a6.107 6.107 0 0 1 6.12-6.094 6.106 6.106 0 1 1-.026 12.213 6.106 6.106 0 0 1-6.094-6.119"/>
        <path stroke="#3C454F" stroke-width="3" d="M135.287 251.028a6.107 6.107 0 0 1 6.12-6.094 6.106 6.106 0 1 1-.026 12.213 6.106 6.106 0 0 1-6.094-6.119zM141.5 198.858l-.013 7.016M115.23 205.792l3.496 6.084M95.945 224.932l6.069 3.52M88.814 251.15l7.016.014M95.747 277.422l6.083-3.496M114.887 296.706l3.521-6.069M141.106 303.838l.014-7.017M167.377 296.904l-3.496-6.084M186.662 277.764l-6.07-3.521M193.793 251.545l-7.016-.014M186.86 225.274l-6.085 3.496M167.72 205.99l-3.522 6.068"/>
        <path fill="#FFF" d="M211.576 255.432h-1.881a1.276 1.276 0 0 1-1.272-1.272v-10.132c0-.7.573-1.273 1.272-1.273h1.88c.7 0 1.273.573 1.273 1.273v10.132c0 .7-.572 1.272-1.272 1.272"/>
        <path stroke="#3C454F" stroke-width="3" d="M211.576 255.432h-1.881a1.276 1.276 0 0 1-1.272-1.272v-10.132c0-.7.573-1.273 1.272-1.273h1.88c.7 0 1.273.573 1.273 1.273v10.132c0 .7-.572 1.272-1.272 1.272z"/>
    </g>
</svg>
