<svg xmlns="http://www.w3.org/2000/svg" width="481" height="361" viewBox="0 0 481 361">
    <path fill="#023E77" fill-rule="evenodd" d="M175.93 0L-129 628l408.053-292.564-13.055-18.225-336.24 241.085L176.874 49.357 480.05 617.05V163.743l-129.085 92.564 13.051 18.2 93.627-67.125v320.132z" opacity=".08"/>
</svg>
