<svg xmlns="http://www.w3.org/2000/svg" xmlns:xlink="http://www.w3.org/1999/xlink" width="342" height="371" viewBox="0 0 342 371">
    <defs>
        <path id="a" d="M94.014 34.466C74.637 74.925 40.567 105.038.432 120.213V.904h93.582v33.562z"/>
        <path id="c" d="M31.548 130.615C5.768 93.844-5.323 47.275 3.539.803h72.455v129.812H31.548z"/>
    </defs>
    <g fill="none" fill-rule="evenodd">
        <path fill="#EFF2F2" d="M7.999 149.911C35.514 59.784 130.882 9.027 221.009 36.543c90.127 27.515 140.884 122.883 113.368 213.01-27.515 90.127-122.883 140.883-213.01 113.368C31.24 335.406-19.516 240.038 7.999 149.911"/>
        <path fill="#FFF" d="M211.64 306.144L67.154 265.752c-8.79-2.685-13.786-12.072-11.103-20.863L127.058 6.214s5.368-2.638 10.078-4.4a16.604 16.604 0 0 1 10.701-.338L304.487 49.3c10.91 3.33 17.11 14.982 13.78 25.892l-69.748 228.457c-2.684 8.79-28.089 5.178-36.879 2.495"/>
        <path stroke="#3C454F" stroke-width="1.5" d="M211.64 306.144L67.154 265.752c-8.79-2.685-13.786-12.072-11.103-20.863L127.058 6.214s5.368-2.638 10.078-4.4a16.604 16.604 0 0 1 10.701-.338L304.487 49.3c10.91 3.33 17.11 14.982 13.78 25.892l-69.748 228.457c-2.684 8.79-28.089 5.178-36.879 2.495z"/>
        <path fill="#FFF" d="M223.62 318.18L58.89 267.888c-7.891-2.41-12.376-10.836-9.967-18.726l71.923-235.584c2.409-7.89 10.836-12.375 18.726-9.966l163.775 50c7.89 2.408 12.375 10.835 9.967 18.726L241.39 307.922c-2.41 7.89-9.88 12.667-17.77 10.258"/>
        <path stroke="#3C454F" stroke-width="1.5" d="M223.62 318.18L58.89 267.888c-7.891-2.41-12.376-10.836-9.967-18.726l71.923-235.584c2.409-7.89 10.836-12.375 18.726-9.966l163.775 50c7.89 2.408 12.375 10.835 9.967 18.726L241.39 307.922c-2.41 7.89-9.88 12.667-17.77 10.258z"/>
        <path fill="#FFF" d="M231.06 292.846L66.869 242.719a6.482 6.482 0 0 1-4.307-8.092l65.004-212.92a6.482 6.482 0 0 1 8.092-4.307l163.235 49.835a6.481 6.481 0 0 1 4.306 8.092l-65.003 212.92c-1.046 3.424-3.712 5.644-7.136 4.599"/>
        <path stroke="#3C454F" stroke-width="1.5" d="M231.06 292.846L66.869 242.719a6.482 6.482 0 0 1-4.307-8.092l65.004-212.92a6.482 6.482 0 0 1 8.092-4.307l163.235 49.835a6.481 6.481 0 0 1 4.306 8.092l-65.003 212.92c-1.046 3.424-3.712 5.644-7.136 4.599z"/>
        <g>
            <g transform="translate(231 239.197)">
                <mask id="b" fill="#fff">
                    <use xlink:href="#a"/>
                </mask>
                <path fill="#FFF" d="M54.45.904c5.124 1.564 12.492 11.114 9.482 20.974L49.89 67.867c4.279 6.892 44.123 73.757 44.123 73.757l-33.62 19.36S24.52 101.842 19.929 93.966c-4.591-7.877-25.052-17.822-18.05-40.757l11.177-36.613" mask="url(#b)"/>
                <path stroke="#3C454F" stroke-width="1.5" d="M54.45.904c5.124 1.564 12.492 11.114 9.482 20.974L49.89 67.867c4.279 6.892 44.123 73.757 44.123 73.757l-33.62 19.36S24.52 101.842 19.929 93.966c-4.591-7.877-25.052-17.822-18.05-40.757l11.177-36.613" mask="url(#b)"/>
            </g>
            <g transform="translate(0 167.197)">
                <mask id="d" fill="#fff">
                    <use xlink:href="#c"/>
                </mask>
                <path fill="#FFF" d="M50.422 1.15C45.3-.412 33.9 3.247 30.844 13.254l-14.04 45.989c-7.4 3.327-77.796 36.536-77.796 36.536l17.074 34.837s62.791-29.02 71-32.988c8.206-3.97 30.733-.791 37.735-23.726l11.177-36.613" mask="url(#d)"/>
                <path stroke="#3C454F" stroke-width="1.5" d="M50.422 1.15C45.3-.412 33.9 3.247 30.844 13.254l-14.04 45.989c-7.4 3.327-77.796 36.536-77.796 36.536l17.074 34.837s62.791-29.02 71-32.988c8.206-3.97 30.733-.791 37.735-23.726l11.177-36.613" mask="url(#d)"/>
            </g>
        </g>
        <g>
            <path fill="#FFF" d="M285.987 257.656c2.36-7.73-1.545-21.008-3.6-31.657 0 0-1.822-8.515-2.304-11.119-.285-1.536-.996-3.578-2.22-5.447l-.322-.353-14.455 48.531"/>
            <path stroke="#3C454F" stroke-width="1.5" d="M285.987 257.656c2.36-7.73-1.545-21.008-3.6-31.657 0 0-1.822-8.515-2.304-11.119-.285-1.536-.996-3.578-2.22-5.447l-.322-.353-14.455 48.531"/>
            <path fill="#FFF" d="M234.97 285.554l17.51-57.354c1.887-6.184 8.491-9.7 14.676-7.811 6.184 1.888 9.7 8.492 7.811 14.676l-12.643 41.412"/>
            <path stroke="#3C454F" stroke-width="1.5" d="M234.97 285.554l17.51-57.354c1.887-6.184 8.491-9.7 14.676-7.811 6.184 1.888 9.7 8.492 7.811 14.676l-12.643 41.412"/>
            <path stroke="#3C454F" stroke-width="1.5" d="M262.783 240.075l-3.821-1.167a4.848 4.848 0 0 1-3.212-6.034l1.548-5.073a4.849 4.849 0 0 1 6.035-3.212l3.822 1.167a4.848 4.848 0 0 1 3.21 6.035l-1.547 5.072c-.776 2.543-3.492 3.988-6.035 3.212zM252.132 249.09l7.415 2.264"/>
            <path fill="#FFF" d="M40.172 182.61c2.36-7.73 13.016-16.562 20.669-24.248 0 0 6.267-6.046 8.12-7.936 1.856-1.89 5.54-4.303 9.553-4.256l1.15.012c.089.001.574.123.66.123l-19.192 62.867"/>
            <path stroke="#3C454F" stroke-width="1.5" d="M40.172 182.61c2.36-7.73 13.016-16.562 20.669-24.248 0 0 6.267-6.046 8.12-7.936 1.856-1.89 5.54-4.303 9.553-4.256l1.15.012c.089.001.574.123.66.123l-19.192 62.867M254.539 254.032l4.29 1.31"/>
            <path fill="#FFF" d="M66.909 234.245l17.51-57.354c1.888-6.184-1.627-12.789-7.811-14.677s-12.79 1.627-14.677 7.811l-12.643 41.412"/>
            <path stroke="#3C454F" stroke-width="1.5" d="M66.909 234.245l17.51-57.354c1.888-6.184-1.627-12.789-7.811-14.677s-12.79 1.627-14.677 7.811l-12.643 41.412"/>
            <path stroke="#3C454F" stroke-width="1.5" d="M69.24 180.987l3.82 1.167c2.543.776 5.26-.669 6.035-3.212l1.55-5.073a4.848 4.848 0 0 0-3.213-6.034l-3.82-1.167c-2.544-.776-5.26.67-6.036 3.212l-1.549 5.072c-.776 2.543.67 5.26 3.212 6.035zM73.038 194.413l-7.414-2.264M68.282 197.169l-4.291-1.31"/>
            <path fill="#FFF" d="M137.029 277.842a7.978 7.978 0 1 1 15.26 4.66 7.978 7.978 0 0 1-15.26-4.66"/>
            <path stroke="#3C454F" stroke-width="1.5" d="M137.029 277.842a7.978 7.978 0 1 1 15.26 4.66 7.978 7.978 0 0 1-15.26-4.66z"/>
            <path fill="#FFF" d="M144 276.557l3.225.985a1.578 1.578 0 0 1 1.05 1.97l-.986 3.226a1.579 1.579 0 0 1-1.97 1.049l-3.226-.985a1.579 1.579 0 0 1-1.049-1.97l.985-3.226a1.578 1.578 0 0 1 1.97-1.05"/>
            <path stroke="#3C454F" stroke-width="1.5" d="M144 276.557l3.225.985a1.578 1.578 0 0 1 1.05 1.97l-.986 3.226a1.579 1.579 0 0 1-1.97 1.049l-3.226-.985a1.579 1.579 0 0 1-1.049-1.97l.985-3.226a1.578 1.578 0 0 1 1.97-1.05z"/>
            <path fill="#FFF" d="M217.517 35.496a1.76 1.76 0 1 1 3.368 1.028 1.76 1.76 0 0 1-3.368-1.028"/>
            <path stroke="#3C454F" stroke-width="1.5" d="M217.517 35.496a1.76 1.76 0 1 1 3.368 1.028 1.76 1.76 0 0 1-3.368-1.028z"/>
            <path fill="#FFF" d="M239.273 271.456l-6.661 21.863s-4.207 13.647 3.085 22.428c7.292 8.782 13.959 15.626 13.959 15.626"/>
            <path stroke="#3C454F" stroke-width="1.5" d="M239.273 271.456l-6.661 21.863s-4.207 13.647 3.085 22.428c7.292 8.782 13.959 15.626 13.959 15.626"/>
            <path stroke="#EFF2F2" stroke-width="10" d="M205.44 239.219l-89.077-27.195c-13.028-3.977-20.433-17.891-16.455-30.92L128.2 88.433c3.977-13.028 17.89-20.433 30.918-16.456l89.077 27.195c13.028 3.978 20.433 17.89 16.456 30.919l-28.293 92.673c-3.978 13.028-17.891 20.433-30.92 16.456z"/>
            <path stroke="#EFF2F2" stroke-linecap="round" stroke-width="10" d="M172.823 64.937l-6.268 20.531M240.76 85.678l-6.267 20.531"/>
            <path fill="#5194FA" d="M142.037 142.019c6.963-22.807 31.097-35.652 53.904-28.689 22.808 6.963 35.652 31.097 28.689 53.904-6.963 22.808-31.097 35.652-53.904 28.689-22.808-6.963-35.652-31.097-28.69-53.904"/>
            <path fill="#3E73EE" d="M138.85 145.325c6.962-22.807 31.096-35.652 53.903-28.689 22.808 6.963 35.652 31.097 28.69 53.904-6.964 22.808-31.098 35.652-53.905 28.69-22.808-6.964-35.652-31.098-28.689-53.905"/>
            <path stroke="#54A0FF" stroke-width="7" d="M159.784 160.26l8.124 12.529s29.748-17.066 38.404-21.927"/>
        </g>
    </g>
</svg>
